[
 {
   "name": "Glidesoft 2004",
   "url": "https://web.archive.org/web/20041204070253/http://www.hosteditil.com:80/hosted_itil_features.htm",
   "date": "2004-12-04",
   "patches": [],
   "features": [
     "Incident",
     "Problem",
     "Change",
     "Knowledge",
     "Legacy Surveys",
     "ECMA3 aka es3"
   ]
 },
  {
    "name": "January 2006",
    "url": "https://web.archive.org/web/20081216011434/http://wiki.service-now.com:80/index.php?title=Upgrades",
    "date": "2006-01-27",
    "patches": [],
    "features": [
      "Release",
      "Discovery",
      "Service Catalog"
    ]
  },
  {
    "name": "February 2006",
    "url": "https://web.archive.org/web/20081216011434/http://wiki.service-now.com:80/index.php?title=Upgrades",
    "date": "2006-02-12",
    "patches": [],
    "features": []
  },
  {
    "name": "March 2006",
    "url": "https://web.archive.org/web/20081216011434/http://wiki.service-now.com:80/index.php?title=Upgrades",
    "date": "2006-03-18",
    "patches": [],
    "features": []
  },
  {
    "name": "April 2006",
    "url": "https://web.archive.org/web/20081216011434/http://wiki.service-now.com:80/index.php?title=Upgrades",
    "date": "2006-04-15",
    "patches": [],
    "features": [
    ]
  },
  {
    "name": "May 2006",
    "url": "https://web.archive.org/web/20081216011434/http://wiki.service-now.com:80/index.php?title=Upgrades",
    "date": "2006-05-21",
    "patches": [],
    "features": [
      "Inactivity Monitors",
      "Enhanced list and form personalization",
      "Home Pages"
    ]
  },
  {
    "name": "July 2006",
    "url": "https://web.archive.org/web/20081216011434/http://wiki.service-now.com:80/index.php?title=Upgrades",
    "date": "2006-07-04",
    "patches": [],
    "features": [
      "Field Status Indicators",
      "Delegates"
    ]
  },
  {
    "name": "August 2006",
    "url": "https://web.archive.org/web/20081216011434/http://wiki.service-now.com:80/index.php?title=Upgrades",
    "date": "2006-08-28",
    "patches": [],
    "features": [
      "Computer Telephony Integration",
      "Client Scripts"
    ]
  },  
  {
    "name": "November 2006",
    "url": "https://web.archive.org/web/20081216011434/http://wiki.service-now.com:80/index.php?title=Upgrades",
    "date": "2006-11-17",
    "patches": [],
    "features": [
      "CMDB",
      "Email Client"
    ]
  },
  {
    "name": "March 2007",
    "url": "https://web.archive.org/web/20081216011434/http://wiki.service-now.com:80/index.php?title=Upgrades",
    "date": "2007-03-02",
    "patches": [],
    "features": [
      "IP Based Access Control",
      "XLS Export",
      "CSV Export"
    ]
  },
  {
    "name": "Summer 2007 aka July 2007",
    "url": "https://web.archive.org/web/20081216011434/http://wiki.service-now.com:80/index.php?title=Upgrades",
    "date": "2007-07-05",
    "patches": [
      {
        "number": "1",
        "name": "Summer 2007 Enhancement Patch",
        "url": "https://web.archive.org/web/20170513191146/http://wiki.servicenow.com:80/index.php?title=Summer_2007_Enhancement_Patch",
        "date": "2007-07-29"
      }
    ],
    "features": [
      "Asset Management",
      "Update Sets",
      "Access Controls",
      "Impersonation",
      "Service Level Management"
    ]
  },
  {
    "name": "Fall 2007",
    "url": "https://web.archive.org/web/20081216011434/http://wiki.service-now.com:80/index.php?title=Upgrades",
    "date": "2007-11-23",
    "patches": [
      {
        "number": "1",
        "name": "Fall 2007 Enhancement Patch",
        "url": "https://web.archive.org/web/20170513191146/http://wiki.servicenow.com:80/index.php?title=Summer_2007_Enhancement_Patch",
        "date": "2007-11-30"
      }
    ],
    "features": [
      "Variable Sets",
      "UI Policies for Forms"
    ]
  },
  {
    "name": "Summer 2008",
    "url": "https://web.archive.org/web/20081216011434/http://wiki.service-now.com:80/index.php?title=Upgrades",
    "date": "2008-08-22",
    "patches": [],
    "features": [
      "Graphical Workflow",
      "Facilities Management",
      "View Management"
    ]
  },
  {
    "name": "Summer 2008 Stable 1",
    "url": "https://web.archive.org/web/20170513203556/http://wiki.servicenow.com:80/index.php?title=Summer_2008_Stable_1",
    "date": "2008-09-17",
    "patches": [],
    "features": [
      "Javascript Debug Window"
    ]
  },
  {
    "name": "Summer 2008 Stable 2",
    "url": "https://web.archive.org/web/20170513201554/http://wiki.servicenow.com:80/index.php?title=Summer_2008_Stable_2",
    "date": "2008-10-31",
    "patches": [],
    "features": [
      "Global UI Scripts",
      "Homepage Layouts",
      "Global Text Search",
      "Mobile Support"
    ]
  },
  {
    "name": "Summer 2008 Stable 3",
    "url": "https://web.archive.org/web/20170513190855/http://wiki.servicenow.com:80/index.php?title=Summer_2008_Stable_3",
    "date": "2008-12-05",
    "patches": [],
    "features": []
  },
  {
    "name": "Winter 2009",
    "url": "https://web.archive.org/web/20170330204255/http://wiki.servicenow.com:80/index.php?title=Winter_2009_Release_Notes",
    "date": "2009-01-09",
    "patches": [],
    "features": [
      "Project Management"
    ]
  },
  {
    "name": "Winter 2009 Stable 1",
    "url": "https://web.archive.org/web/20170513220839/http://wiki.servicenow.com:80/index.php?title=Winter_2009_Stable_1",
    "date": "2009-02-13",
    "patches": [],
    "features": []
  },
  {
    "name": "Winter 2009 Stable 2",
    "url": "https://web.archive.org/web/20170513201738/http://wiki.servicenow.com:80/index.php?title=Winter_2009_Stable_2",
    "date": "2009-03-13",
    "patches": [],
    "features": [
      "Security Jump Start"
    ]
  },
  {
    "name": "Winter 2009 Stable 3",
    "url": "https://web.archive.org/web/20170513194649/http://wiki.servicenow.com:80/index.php?title=Winter_2009_Stable_3",
    "date": "2009-04-10",
    "patches": [],
    "features": []
  },
  {
    "name": "Winter 2009 Stable 4",
    "url": "https://web.archive.org/web/20170513201743/http://wiki.servicenow.com:80/index.php?title=Winter_2009_Stable_4",
    "date": "2009-05-01",
    "patches": [],
    "features": [
      "Change Risk Calculator"
    ]
  },
  {
    "name": "Spring 2009",
    "url": "https://web.archive.org/web/20121102072601/http://wiki.servicenow.com/index.php?title=Spring_2009_Release_Notes",
    "date": "2009-05-29",
    "patches": [],
    "features": [
      "Content Management System",
      "Metric Definition",
      "Database Views"
    ]
  },
  {
    "name": "Spring 2009 Stable 1",
    "url": "https://web.archive.org/web/20121102071848/http://wiki.servicenow.com/index.php?title=Spring_2009_Stable_1",
    "date": "2009-06-26",
    "patches": [],
    "features": []
  },
  {
    "name": "Spring 2009 Stable 2",
    "url": "https://web.archive.org/web/20121102071207/http://wiki.servicenow.com/index.php?title=Spring_2009_Stable_2",
    "date": "2009-05-29",
    "patches": [],
    "features": []
  },
  {
    "name": "Spring 2009 Stable 3",
    "url": "https://web.archive.org/web/20121102072715/http://wiki.servicenow.com/index.php?title=Spring_2009_Stable_3",
    "date": "2009-08-28",
    "patches": [],
    "features": []
  },
  {
    "name": "Fall 2009",
    "url": "https://web.archive.org/web/20170331164444/http://wiki.servicenow.com:80/index.php?title=Fall_2009_Release_Notes",
    "date": "2009-09-25",
    "patches": [
      {
        "number": "1",
        "name": "Fall 2009 Update",
        "url": "https://web.archive.org/web/20170513212547/http://wiki.servicenow.com:80/index.php?title=Fall_2009_Update",
        "date": "2009-09-26"
      }
    ],
    "features": [
      "Maintenance Schedules"
    ]
  },
  {
    "name": "Fall 2009 Stable 1",
    "url": "https://web.archive.org/web/20170513213507/http://wiki.servicenow.com:80/index.php?title=Fall_2009_Stable_1",
    "date": "2009-10-23",
    "patches": [],
    "features": [
      "Performance Metrics"
    ]
  },
  {
    "name": "Fall 2009 Stable 2",
    "url": "https://web.archive.org/web/20121102071935/http://wiki.servicenow.com/index.php?title=Fall_2009_Stable_2",
    "date": "2009-11-20",
    "patches": [],
    "features": [
      "Self Service Password Reset"
    ]
  },
  {
    "name": "Fall 2009 Stable 3",
    "url": "https://web.archive.org/web/20170513192459/http://wiki.servicenow.com:80/index.php?title=Fall_2009_Stable_3",
    "date": "2009-12-18",
    "patches": [],
    "features": [
      "Cancel Transactions"
    ]
  },
  {
    "name": "Winter 2010",
    "url": "https://web.archive.org/web/20170331164551/http://wiki.servicenow.com:80/index.php?title=Winter_2010_Release_Notes",
    "date": "2010-01-22",
    "patches": [],
    "features": [
      "Client Transaction Timings",
      "Update Set Preview",
      "Save Updates as XML"
    ]
  },
  {
    "name": "Winter 2010 Stable 1",
    "url": "https://web.archive.org/web/20170513212658/http://wiki.servicenow.com:80/index.php?title=Winter_2010_Stable_1_Release_Notes",
    "date": "2010-02-19",
    "patches": [],
    "features": []
  },
  {
    "name": "Winter 2010 Stable 2",
    "url": "https://web.archive.org/web/20170513194654/http://wiki.servicenow.com:80/index.php?title=Winter_2010_Stable_2_Release_Notes",
    "date": "2010-03-19",
    "patches": [],
    "features": [
      "Upgrade History"
    ]
  },
  {
    "name": "Winter 2010 Stable 3",
    "url": "https://web.archive.org/web/20170513215042/http://wiki.servicenow.com:80/index.php?title=Winter_2010_Stable_3_Release_Notes",
    "date": "2010-04-16",
    "patches": [],
    "features": [
      "UI Policies for Catalog"
    ]
  },
  {
    "name": "Spring 2010",
    "url": "https://web.archive.org/web/20170330203949/http://wiki.servicenow.com:80/index.php?title=Spring_2010_Release_Notes",
    "date": "2010-07-04",
    "patches": [],
    "features": [
      "SAML 2.0 SSO Plugin",
      "Portfolio Management",
      "Field Service Management",
      "Project Management v2",
      "Cost Management"
    ]
  },
  {
    "name": "Spring 2010 Stable 1",
    "url": "https://web.archive.org/web/20170513200247/http://wiki.servicenow.com:80/index.php?title=Spring_2010_Stable_1_Release_Notes",
    "date": "2010-07-09",
    "patches": [],
    "features": [
      "List v2"
    ]
  },
  {
    "name": "Spring 2010 Stable 2",
    "url": "https://web.archive.org/web/20170331210005/http://wiki.servicenow.com:80/index.php?title=Spring_2010_Stable_2_Release_Notes",
    "date": "2010-08-06",
    "patches": [],
    "features": [
      "Tiny URL Support"
    ]
  },
  {
    "name": "Spring 2010 Stable 3",
    "url": "https://web.archive.org/web/20170513212838/http://wiki.servicenow.com:80/index.php?title=Spring_2010_Stable_3_Release_Notes",
    "date": "2010-09-03",
    "patches": [],
    "features": [
      "Employee Self Service"
    ]
  },
  {
    "name": "Fall 2010",
    "url": "https://web.archive.org/web/20170331210938/http://wiki.servicenow.com:80/index.php?title=Fall_2010_Release_Notes",
    "date": "2010-10-01",
    "patches": [
      {
        "number": "1",
        "name": "Fall 2010 Update",
        "url": "https://web.archive.org/web/20170513214651/http://wiki.servicenow.com:80/index.php?title=Release:Fall_2010_Update",
        "date": "2010-10-08"
      }
    ],
    "features": [
      "Orchestration",
      "Sales Force Automation",
      "SDLC"
    ]
  },
  {
    "name": "Fall 2010 Stable 1",
    "url": "https://web.archive.org/web/20170513190740/http://wiki.servicenow.com:80/index.php?title=Fall_2010_Stable_1_Release_Notes",
    "date": "2010-10-29",
    "patches": [
      {
        "number": "1",
        "name": "Fall 2010 Stable 1 Update",
        "url": "https://web.archive.org/web/20170513212047/http://wiki.servicenow.com:80/index.php?title=Release:Fall_2010_Stable_1_Update",
        "date": "2010-11-12"
      }
    ],
    "features": [
      "Upgrade Monitor"
    ]
  },
  {
    "name": "Fall 2010 Stable 2",
    "url": "https://web.archive.org/web/20170331210712/http://wiki.servicenow.com:80/index.php?title=Fall_2010_Stable_2_Release_Notes",
    "date": "2010-12-03",
    "patches": [
      {
        "number": "1",
        "name": "Fall 2010 Stable 2 Update",
        "url": "https://web.archive.org/web/20170513193945/http://wiki.servicenow.com:80/index.php?title=Release:Fall_2010_Stable_2_Update",
        "date": "2010-12-08"
      }
    ],
    "features": []
  },
  {
    "name": "Fall 2010 Stable 3",
    "url": "https://web.archive.org/web/20170513190746/http://wiki.servicenow.com:80/index.php?title=Fall_2010_Stable_3_Release_Notes",
    "date": "2011-01-07",
    "patches": [],
    "features": [
      "Service Level Management - SLA Commitments"
    ]
  },
  {
    "name": "Winter 2011",
    "url": "https://web.archive.org/web/20121102071631/http://wiki.servicenow.com/index.php?title=Winter_2011_Release_Notes",
    "date": "2011-02-04",
    "patches": [
      {
        "number": "1",
        "name": "Winter 2011 Update",
        "url": "https://web.archive.org/web/20170513193058/http://wiki.servicenow.com:80/index.php?title=Release:Winter_2011_Update",
        "date": "2011-03-10"
      }
    ],
    "features": [
      "Chat",
      "Live Feed",
      "GRC"
    ]
  },
  {
    "name": "June 2011 Preview 1",
    "url": "https://web.archive.org/web/20170513203307/http://wiki.servicenow.com:80/index.php?title=June_2011_Preview_1_Release_Notes",
    "date": "2011-03-04",
    "patches": [],
    "features": []
  },
  {
    "name": "June 2011 Preview 2",
    "url": "https://web.archive.org/web/20170513193818/http://wiki.servicenow.com:80/index.php?title=June_2011_Preview_2_Release_Notes",
    "date": "2011-04-08",
    "patches": [],
    "features": [
      "Data Certification"
    ]
  },
  {
    "name": "June 2011 Preview 3",
    "url": "https://web.archive.org/web/20170513213329/http://wiki.servicenow.com:80/index.php?title=June_2011_Preview_3_Release_Notes",
    "date": "2011-05-06",
    "patches": [],
    "features": [
      "Change Risk Assessment"
    ]
  },
  {
    "name": "June 2011",
    "url": "https://web.archive.org/web/20170513214932/http://wiki.servicenow.com:80/index.php?title=June11_Release_Notes",
    "date": "2011-06-17",
    "patches": [
      {
        "number": "1",
        "name": "June 11 Update",
        "url": "https://web.archive.org/web/20170513212832/http://wiki.servicenow.com:80/index.php?title=Release:June11_Update",
        "date": "2011-06-17"
      },
      {
        "number": "2",
        "name": "June 11 Patch 2",
        "url": "https://web.archive.org/web/20170513194000/http://wiki.servicenow.com:80/index.php?title=Release:June11_Patch_2",
        "date": "2011-10-21"
      },
      {
        "number": "3",
        "name": "June 11 Patch 3",
        "url": "https://web.archive.org/web/20171126164631/http://wiki.servicenow.com/index.php?title=Release:June11_Patch_3",
        "date": "2011-11-22"
      },
      {
        "number": "4",
        "name": "June 11 Patch 4",
        "url": "https://web.archive.org/web/20170513213501/http://wiki.servicenow.com:80/index.php?title=Release:June11_Patch_4",
        "date": "2012-03-07"
      },
      {
        "number": "5",
        "name": "June 11 Patch 5",
        "url": "https://web.archive.org/web/20170513212827/http://wiki.servicenow.com:80/index.php?title=Release:June11_Patch_5",
        "date": "2012-07-07"
      }
    ],
    "features": [
      "UI11",
      "Document Management"
    ]
  },
  {
    "name": "Aspen aka October 2011",
    "url": "https://web.archive.org/web/20170417150818/http://wiki.servicenow.com/index.php?title=Aspen_Release_Notes",
    "date": "2011-12-01",
    "patches": [
      {
        "number": "1",
        "name": "Aspen Patch 1",
        "url": "https://web.archive.org/web/20170513203313/http://wiki.servicenow.com:80/index.php?title=Release:Aspen_Patch_1",
        "date": "2011-12-21"
      },
      {
        "number": "2",
        "name": "Aspen Patch 2",
        "url": "https://web.archive.org/web/20170513212113/http://wiki.servicenow.com:80/index.php?title=Release:Aspen_Patch_2",
        "date": "2012-01-16"
      },
      {
        "number": "3",
        "name": "Aspen Patch 3",
        "url": "https://web.archive.org/web/20170513220716/http://wiki.servicenow.com:80/index.php?title=Release:Aspen_Patch_3",
        "date": "2012-04-25"
      },
      {
        "number": "4",
        "name": "Aspen Patch 4",
        "url": "https://web.archive.org/web/20170513201636/http://wiki.servicenow.com:80/index.php?title=Release:Aspen_Patch_4",
        "date": "2012-05-18"
      },
      {
        "number": "5",
        "name": "Aspen Patch 5",
        "url": "https://web.archive.org/web/20170513200516/http://wiki.servicenow.com:80/index.php?title=Release:Aspen_Patch_5",
        "date": "2012-06-14"
      },
      {
        "number": "6",
        "name": "Aspen Patch 6",
        "url": "https://web.archive.org/web/20170513194706/http://wiki.servicenow.com:80/index.php?title=Release:Aspen_Patch_6",
        "date": "2012-07-06"
      },
      {
        "number": "7",
        "name": "Aspen Patch 7",
        "url": "https://web.archive.org/web/20170513213513/http://wiki.servicenow.com:80/index.php?title=Release:Aspen_Patch_7",
        "date": "2012-08-06"
      },
      {
        "number": "8",
        "name": "Aspen Patch 8",
        "url": "https://web.archive.org/web/20170513191259/http://wiki.servicenow.com:80/index.php?title=Release:Aspen_Patch_8",
        "date": "2012-09-11"
      },
      {
        "number": "9",
        "name": "Aspen Patch 9",
        "url": "https://web.archive.org/web/20170513200319/http://wiki.servicenow.com:80/index.php?title=Release:Aspen_Patch_9",
        "date": "2012-10-15"
      },
      {
        "number": "10",
        "name": "Aspen Patch 10",
        "url": "https://web.archive.org/web/20160128170912/http://wiki.servicenow.com:80/index.php?title=Release:Aspen_Patch_10",
        "date": "2012-11-15"
      },
      {
        "number": "11",
        "name": "Aspen Patch 11",
        "url": "https://web.archive.org/web/20170513190809/http://wiki.servicenow.com:80/index.php?title=Release:Aspen_Patch_11",
        "date": "2012-12-20"
      }
    ],
    "features": [
      "Data Policies"
    ]
  },
  {
    "name": "Berlin",
    "url": "https://web.archive.org/web/20171126031424/http://wiki.servicenow.com/index.php?title=Berlin_Release_Notes",
    "date": "2012-07-02",
    "patches": [
      {
        "number": "1",
        "name": "Berlin Patch 1",
        "url": "https://web.archive.org/web/20170513192932/http://wiki.servicenow.com:80/index.php?title=Release:Berlin_Patch_1",
        "date": "2012-08-29"
      },
      {
        "number": "2",
        "name": "Berlin Patch 2",
        "url": "https://web.archive.org/web/20170513212131/http://wiki.servicenow.com:80/index.php?title=Release:Berlin_Patch_2",
        "date": "2012-09-21"
      },
      {
        "number": "3",
        "name": "Berlin Patch 3",
        "url": "https://web.archive.org/web/20170513193237/http://wiki.servicenow.com:80/index.php?title=Release:Berlin_Patch_3",
        "date": "2012-11-01"
      },
      {
        "number": "4",
        "name": "Berlin Patch 4",
        "url": "https://web.archive.org/web/20170513192807/http://wiki.servicenow.com:80/index.php?title=Release:Berlin_Patch_4",
        "date": "2012-11-19"
      },
      {
        "number": "5",
        "name": "Berlin Patch 5",
        "url": "https://web.archive.org/web/20170513214631/http://wiki.servicenow.com:80/index.php?title=Release:Berlin_Patch_5",
        "date": "2012-12-12"
      },
      {
        "number": "6",
        "name": "Berlin Patch 6",
        "url": "https://web.archive.org/web/20170513211944/http://wiki.servicenow.com:80/index.php?title=Release:Berlin_Patch_6",
        "date": "2013-01-16"
      },
      {
        "number": "7",
        "name": "Berlin Patch 7",
        "url": "https://web.archive.org/web/20170513194717/http://wiki.servicenow.com:80/index.php?title=Release:Berlin_Patch_7",
        "date": "2013-02-21"
      },
      {
        "number": "8",
        "name": "Berlin Patch 8",
        "url": "https://web.archive.org/web/20170520100718/http://wiki.servicenow.com:80/index.php?title=Release:Berlin_Patch_8",
        "date": "2013-03-14"
      },
      {
        "number": "9",
        "name": "Berlin Patch 9",
        "url": "https://web.archive.org/web/20170520093317/http://wiki.servicenow.com:80/index.php?title=Release:Berlin_Patch_9",
        "date": "2013-04-10"
      },
      {
        "number": "10",
        "name": "Berlin Patch 10",
        "url": "https://web.archive.org/web/20170513213522/http://wiki.servicenow.com:80/index.php?title=Release:Berlin_Patch_10",
        "date": "2013-04-10"
      },
      {
        "number": "11",
        "name": "Berlin Patch 11",
        "url": "https://web.archive.org/web/20170513203821/http://wiki.servicenow.com:80/index.php?title=Release:Berlin_Patch_11",
        "date": "2013-06-05"
      },
      {
        "number": "12",
        "name": "Berlin Patch 12",
        "url": "https://web.archive.org/web/20170513214627/http://wiki.servicenow.com:80/index.php?title=Release:Berlin_Patch_12",
        "date": "2013-07-03"
      },
      {
        "number": "13",
        "name": "Berlin Patch 13",
        "url": "https://web.archive.org/web/20170513193836/http://wiki.servicenow.com:80/index.php?title=Release:Berlin_Patch_13",
        "date": "2013-08-15"
      },
      {
        "number": "14",
        "name": "Berlin Patch 14",
        "url": "https://web.archive.org/web/20171126170228/http://wiki.servicenow.com/index.php?title=Release:Berlin_Patch_14",
        "date": "2013-11-26"
      },
      {
        "number": "15",
        "name": "Berlin Patch 15",
        "url": "https://web.archive.org/web/20170513194712/http://wiki.servicenow.com:80/index.php?title=Release:Berlin_Patch_15",
        "date": "2013-12-17"
      }
    ],
    "features": [
      "Coaching Loops",
      "System Clone Application",
      "Transaction Quotas"
    ]
  },
  {
    "name": "Calgary",
    "url": "https://web.archive.org/web/20171126031755/http://wiki.servicenow.com/index.php?title=Calgary_Release_Notes",
    "date": "2013-02-28",
    "patches": [
      {
        "number": "1",
        "name": "Calgary Patch 1",
        "url": "https://web.archive.org/web/20170513194721/http://wiki.servicenow.com:80/index.php?title=Release:Calgary_Patch_1",
        "date": "2013-07-22"
      },
      {
        "number": "2",
        "name": "Calgary Patch 2",
        "url": "https://web.archive.org/web/20170120073524/http://wiki.servicenow.com:80/index.php?title=Release:Calgary_Patch_2",
        "date": "2013-08-08"
      },
      {
        "number": "3",
        "name": "Calgary Patch 3",
        "url": "https://web.archive.org/web/20170513191724/http://wiki.servicenow.com:80/index.php?title=Release:Calgary_Patch_3",
        "date": "2013-11-12"
      },
      {
        "number": "4",
        "name": "Calgary Patch 4",
        "url": "https://web.archive.org/web/20170513192526/http://wiki.servicenow.com:80/index.php?title=Release:Calgary_Patch_4",
        "date": "2013-12-17"
      },
      {
        "number": "5",
        "name": "Calgary Patch 5",
        "url": "https://web.archive.org/web/20170513203459/http://wiki.servicenow.com:80/index.php?title=Release:Calgary_Patch_5",
        "date": "2014-03-18"
      },
      {
        "number": "6",
        "name": "Calgary Patch 6",
        "url": "https://web.archive.org/web/20170513191522/http://wiki.servicenow.com:80/index.php?title=Release:Calgary_Patch_6",
        "date": "2014-05-27"
      },
      {
        "number": "7",
        "name": "Calgary Patch 7",
        "url": "https://web.archive.org/web/20170513203459/http://wiki.servicenow.com:80/index.php?title=Release:Calgary_Patch_7",
        "date": "2014-08-05"
      }
    ],
    "features": [
      "Work Management",
      "Contract Management",
      "Procurement",
      "Product Catalog"
    ]
  },
  {
    "name": "Dublin",
    "url": "https://web.archive.org/web/20151018161349/http://wiki.servicenow.com/index.php?title=Dublin_Release_Notes",
    "date": "2013-10-22",
    "patches": [
      {
        "number": "1",
        "name": "Dublin Patch 1",
        "url": "https://web.archive.org/web/20170513213358/http://wiki.servicenow.com:80/index.php?title=Release:Dublin_Patch_1",
        "date": "2014-04-04"
      },
      {
        "number": "2",
        "name": "Dublin Patch 2",
        "url": "https://web.archive.org/web/20170513212425/http://wiki.servicenow.com:80/index.php?title=Release:Dublin_Patch_2",
        "date": "2014-05-13"
      },
      {
        "number": "3",
        "name": "Dublin Patch 3",
        "url": "https://web.archive.org/web/20170513203503/http://wiki.servicenow.com:80/index.php?title=Release:Dublin_Patch_3",
        "date": "2014-06-12"
      },
      {
        "number": "4",
        "name": "Dublin Patch 4",
        "url": "https://web.archive.org/web/20170513203826/http://wiki.servicenow.com:80/index.php?title=Release:Dublin_Patch_4",
        "date": "2014-07-07"
      },
      {
        "number": "5",
        "name": "Dublin Patch 5",
        "url": "https://web.archive.org/web/20170513212143/http://wiki.servicenow.com:80/index.php?title=Release:Dublin_Patch_5",
        "date": "2014-07-29"
      },
      {
        "number": "6",
        "name": "Dublin Patch 6",
        "url": "https://web.archive.org/web/20170520093339/http://wiki.servicenow.com:80/index.php?title=Release:Dublin_Patch_6",
        "date": "2014-09-23"
      },
      {
        "number": "7",
        "name": "Dublin Patch 7",
        "url": "https://web.archive.org/web/20160812163901/http://wiki.servicenow.com:80/index.php?title=Release:Dublin_Patch_7",
        "date": "2014-11-18"
      },
      {
        "number": "8",
        "name": "Dublin Patch 8",
        "url": "https://web.archive.org/web/20161118225559/http://wiki.servicenow.com:80/index.php?title=Release:Dublin_Patch_8",
        "date": "2015-02-24"
      }
    ],
    "features": [
      "Performance Analytics",
      "Vendor Management",
      "Resource Management",
      "HR Service Management",
      "Incident Alert Managemment",
      "Vendor Ticketing",
      "Compliance",
      "Architecture Compliance",
      "Desired State",
      "Structured Problem Analysis",
      "Personal Tasks",
      "Service Desk Call",
      "JSONv2"
    ]
  },
  {
    "name": "Eureka",
    "url": "https://web.archive.org/web/20151019051822/http://wiki.servicenow.com/index.php?title=Eureka_Release_Notes",
    "date": "2014-05-06",
    "patches": [
      {
        "name": "Eureka Patch 0",
        "number": "0",
        "url": "",
        "date": "2014-05-06",
        "git": "https://gitlab.com/jacebenson/sndocs/tree/master/sources/eureka/0/scripts/"
      },
      {
        "name": "Eureka Patch 1",
        "number": "1",
        "url": "https://web.archive.org/web/20160129073712/http://wiki.servicenow.com:80/index.php?title=Release:Eureka_Patch_1",
        "date": "2014-06-03"
      },
      {
        "name": "Eureka Patch 2",
        "number": "2",
        "url": "https://web.archive.org/web/20170513220803/http://wiki.servicenow.com:80/index.php?title=Release:Eureka_Patch_2",
        "date": "2014-06-25"
      },
      {
        "name": "Eureka Patch 3",
        "number": "3",
        "url": "https://web.archive.org/web/20170513192856/http://wiki.servicenow.com:80/index.php?title=Release:Eureka_Patch_3",
        "date": "2014-07-21"
      },
      {
        "name": "Eureka Patch 4",
        "number": "4",
        "url": "https://web.archive.org/web/20170513191320/http://wiki.servicenow.com:80/index.php?title=Release:Eureka_Patch_4",
        "date": "2014-08-19"
      },
      {
        "name": "Eureka Patch 5",
        "number": "5",
        "url": "https://web.archive.org/web/20170513212626/http://wiki.servicenow.com:80/index.php?title=Release:Eureka_Patch_5",
        "date": "2014-09-09"
      },
      {
        "name": "Eureka Patch 6",
        "number": "6",
        "url": "https://web.archive.org/web/20170513193020/http://wiki.servicenow.com:80/index.php?title=Release:Eureka_Patch_6",
        "date": "2014-10-19"
      },
      {
        "name": "Eureka Patch 7",
        "number": "7",
        "url": "https://web.archive.org/web/20160918152258/http://wiki.servicenow.com:80/index.php?title=Release:Eureka_Patch_7",
        "date": "2014-11-07"
      },
      {
        "name": "Eureka Patch 8",
        "number": "8",
        "url": "https://web.archive.org/web/20150625021523/http://wiki.servicenow.com:80/index.php?title=Release:Eureka_Patch_8",
        "date": "2015-01-08"
      },
      {
        "name": "Eureka Patch 9",
        "number": "9",
        "url": "https://web.archive.org/web/20150625033157/http://wiki.servicenow.com:80/index.php?title=Release:Eureka_Patch_9",
        "date": "2015-02-04"
      },
      {
        "name": "Eureka Patch 10",
        "number": "10",
        "url": "https://web.archive.org/web/20151009000644/http://wiki.servicenow.com:80/index.php?title=Release:Eureka_Patch_10",
        "date": "2015-04-02"
      },
      {
        "name": "Eureka Patch 11",
        "number": "11",
        "url": "https://web.archive.org/web/20160424225634/http://wiki.servicenow.com:80/index.php?title=Release:Eureka_Patch_11",
        "date": "2015-05-19"
      },
      {
        "name": "Eureka Patch 12",
        "number": "12",
        "url": "https://web.archive.org/web/20160305043254/http://wiki.servicenow.com:80/index.php?title=Release:Eureka_Patch_12",
        "date": "2015-08-25"
      },
      {
        "name": "Eureka Patch 13",
        "number": "13",
        "url": "https://web.archive.org/web/20160328163443/http://wiki.servicenow.com:80/index.php?title=Release:Eureka_Patch_13",
        "date": "2015-11-17"
      }
    ],
    "features": [
      "Facilities Service Automation",
      "Visual Task Boards",
      "Demand Management"
    ]
  },
  {
    "name": "Fuji",
    "url": "https://web.archive.org/web/20170118064821/http://wiki.servicenow.com:80/index.php?title=Fuji_Release_Notes",
    "date": "2015-01-23",
    "patches": [
      {
        "number": "1",
        "name": "Fuji Patch 1",
        "url": "https://web.archive.org/web/20170513212818/http://wiki.servicenow.com:80/index.php?title=Release:Fuji_Patch_1",
        "date": "2015-02-21"
      },
      {
        "number": "2",
        "name": "Fuji Patch 2",
        "url": "https://web.archive.org/web/20151021045618/http://wiki.servicenow.com/index.php?title=Release:Fuji_Patch_2",
        "date": "2015-03-16"
      },
      {
        "number": "3",
        "name": "Fuji Patch 3",
        "url": "https://web.archive.org/web/20160502161341/http://wiki.servicenow.com:80/index.php?title=Release:Fuji_Patch_3",
        "date": "2015-04-14"
      },
      {
        "number": "4",
        "name": "Fuji Patch 4",
        "url": "https://web.archive.org/web/20151020095547/http://wiki.servicenow.com/index.php?title=Release:Fuji_Patch_4",
        "date": "2015-05-14"
      },
      {
        "number": "5",
        "name": "Fuji Patch 5",
        "url": "https://web.archive.org/web/20170119073019/http://wiki.servicenow.com:80/index.php?title=Release:Fuji_Patch_5",
        "date": "2015-06-09"
      },
      {
        "number": "6",
        "name": "Fuji Patch 6",
        "url": "https://web.archive.org/web/20151018175849/http://wiki.servicenow.com/index.php?title=Release:Fuji_Patch_6",
        "date": "2015-07-13"
      },
      {
        "number": "7",
        "name": "Fuji Patch 7",
        "url": "https://web.archive.org/web/20151024000829/http://wiki.servicenow.com:80/index.php?title=Release:Fuji_Patch_7",
        "date": "2015-08-03"
      },
      {
        "number": "8",
        "name": "Fuji Patch 8",
        "url": "https://web.archive.org/web/20151226072656/http://wiki.servicenow.com:80/index.php?title=Release:Fuji_Patch_8",
        "date": "2015-09-03"
      },
      {
        "number": "9",
        "name": "Fuji Patch 9",
        "url": "https://web.archive.org/web/20160115193840/http://wiki.servicenow.com:80/index.php?title=Release:Fuji_Patch_9",
        "date": "2015-09-25"
      },
      {
        "number": "10",
        "name": "Fuji Patch 10",
        "url": "https://web.archive.org/web/20160718085623/http://wiki.servicenow.com:80/index.php?title=Release:Fuji_Patch_10",
        "date": "2015-10-29"
      },
      {
        "number": "11",
        "name": "Fuji Patch 11",
        "url": "https://web.archive.org/web/20161118225616/http://wiki.servicenow.com:80/index.php?title=Release:Fuji_Patch_11",
        "date": "2015-11-30"
      },
      {
        "number": "12",
        "name": "Fuji Patch 12",
        "url": "https://web.archive.org/web/20161118225620/http://wiki.servicenow.com:80/index.php?title=Release:Fuji_Patch_12",
        "date": "2016-02-11",
        "hi": "https://hi.service-now.com/kb_view.do?sys_kb_id=e19e3a4b4f21de40f347524e0210c7b5"
      },
      {
        "number": "13",
        "name": "Fuji Patch 13",
        "url": "https://web.archive.org/web/20161118225629/http://wiki.servicenow.com:80/index.php?title=Release:Fuji_Patch_13",
        "date": "2016-05-04",
        "git": "https://gitlab.com/jacebenson/sndocs/tree/master/sources/fuji/13/scripts/",
        "hi": "https://hi.service-now.com/kb_view.do?sys_kb_id=3909ed674f4f56047b0cb85e0210c7c6"
      }
    ],
    "features": [
      "Test Management",
      "Performance Analytics",
      "Legal Service Management",
      "Margeting Service Management",
      "IT Financial Management",
      "Finance Service Management",
      "Team Development",
      "Studio",
      "UI15"
    ]
  },
  {
    "name": "Geneva",
    "url": "https://docs.servicenow.com/bundle/geneva-release-notes/page/release-notes/geneva-release-notes.html",
    "date": "2015-11-03",
    "patches": [
      {
        "number": "1",
        "name": "Geneva Patch 1",
        "url": "https://docs.servicenow.com/bundle/geneva-release-notes/page/release-notes/r_Geneva-Patch-1.html",
        "date": "2015-11-25"
      },
      {
        "number": "2",
        "name": "Geneva Patch 2",
        "url": "https://docs.servicenow.com/bundle/geneva-release-notes/page/release-notes/r_Geneva-Patch-3.html",
        "date": "2016-01-22"
      },
      {
        "number": "3",
        "name": "Geneva Patch 3",
        "url": "https://docs.servicenow.com/bundle/geneva-release-notes/page/release-notes/r_Geneva-Patch-3.html",
        "date": "2016-01-22",
        "hi":"https://hi.service-now.com/kb_view.do?sys_kb_id=a89fb7326fd5da80fbf5409e9f3ee4c4"
      },
      {
        "number": "4",
        "name": "Geneva Patch 4",
        "url": "https://docs.servicenow.com/bundle/geneva-release-notes/page/release-notes/r_Geneva-Patch-4.html",
        "date": "2016-02-16",
        "hi": "https://hi.service-now.com/kb_view.do?sys_kb_id=e2bde5034f29da40f347524e0210c781"
      },
      {
        "number": "5",
        "name": "Geneva Patch 5",
        "url": "https://docs.servicenow.com/bundle/geneva-release-notes/page/release-notes/r_Geneva-Patch-5.html",
        "date": "2016-03-23",
        "hi": "https://hi.service-now.com/kb_view.do?sys_kb_id=68652e9d0fb196802f42938172050ea4"
      },
      {
        "number": "6",
        "name": "Geneva Patch 6",
        "url": "https://docs.servicenow.com/bundle/geneva-release-notes/page/release-notes/r_Geneva-Patch-6.html",
        "date": "2016-04-19",
        "hi": "https://hi.service-now.com/kb_view.do?sys_kb_id=2b0c63144fba9e403ed8b85e0210c7ad"
      },
      {
        "number": "7",
        "name": "Geneva Patch 7",
        "url": "https://docs.servicenow.com/bundle/geneva-release-notes/page/release-notes/r_Geneva-Patch-7.html",
        "date": "2016-05-21",
        "hi": "https://hi.service-now.com/kb_view.do?sys_kb_id=f18db1f74f471e047b0cb85e0210c7e0"
      },
      {
        "number": "8",
        "name": "Geneva Patch 8",
        "url": "https://docs.servicenow.com/bundle/geneva-release-notes/page/release-notes/r_Geneva-Patch-8.html",
        "date": "2016-08-16",
        "hi": "https://hi.service-now.com/kb_view.do?sys_kb_id=069f713adbcdee08bd7ef47e0f9619f5"
      },
      {
        "number": "9",
        "name": "Geneva Patch 9",
        "url": "https://docs.servicenow.com/bundle/geneva-release-notes/page/release-notes/r_Geneva-Patch-9.html",
        "date": "2016-09-28",
        "hi": "https://hi.service-now.com/kb_view.do?sys_kb_id=964dc669dbc6ee00852c7a9e0f96191c"
      },
      {
        "number": "10",
        "name": "Geneva Patch 10",
        "url": "https://docs.servicenow.com/bundle/geneva-release-notes/page/release-notes/r_Geneva-Patch-10.html",
        "date": "2016-11-24",
        "hi": "https://hi.service-now.com/kb_view.do?sys_kb_id=1a0e26a7dbcb6a00852c7a9e0f961952"
      },
      {
        "number": "11",
        "name": "Geneva Patch 11",
        "url": "https://docs.servicenow.com/bundle/geneva-release-notes/page/release-notes/r_Geneva-Patch-11.html",
        "date": "2017-02-23",
        "git": "https://gitlab.com/jacebenson/sndocs/tree/master/sources/geneva/11/scripts/",
        "hi": "https://hi.service-now.com/kb_view.do?sys_kb_id=40edbe82db093e400e3dfb651f9619e3"
      }
    ],
    "features": [
      "Security Operations",
      "Scripted REST APIs",
      "Attachment REST API",
      "Expense Lines",
      "Edge Encryption"
    ]
  },
  {
    "name": "Helsinki",
    "url": "https://docs.servicenow.com/bundle/helsinki-release-notes/page/release-notes/helsinki-release-notes.html",
    "date": "2016-04-28",
    "patches": [
      {
        "number": "1",
        "name": "Helsinki Patch 1",
        "url": "https://docs.servicenow.com/bundle/helsinki-release-notes/page/release-notes/r_Helsinki-Patch-1.html",
        "date": "2016-06-10",
        "hi": "https://hi.service-now.com/kb_view.do?sysparm_article=KB0594814"
      },
      {
        "number": "2",
        "name": "Helsinki Patch 2",
        "url": "https://docs.servicenow.com/bundle/helsinki-release-notes/page/release-notes/r_Helsinki-Patch-2.html",
        "date": "2016-07-07",
        "hi": "https://hi.service-now.com/kb_view.do?sysparm_article=KB0596138"
      },
      {
        "number": "3",
        "name": "Helsinki Patch 3",
        "url": "https://docs.servicenow.com/bundle/helsinki-release-notes/page/release-notes/r_Helsinki-Patch-3.html",
        "date": "2016-08-05",
        "hi": "https://hi.service-now.com/kb_view.do?sysparm_article=KB0596689"
      },
      {
        "number": "4",
        "name": "Helsinki Patch 4",
        "url": "https://docs.servicenow.com/bundle/helsinki-release-notes/page/release-notes/r_Helsinki-Patch-4.html",
        "date": "2016-08-31",
        "hi": "https://hi.service-now.com/kb_view.do?sysparm_article=KB0597395"
      },
      {
        "number": "5",
        "name": "Helsinki Patch 5",
        "url": "https://docs.servicenow.com/bundle/helsinki-release-notes/page/release-notes/r_Helsinki-Patch-5.html",
        "date": "2016-09-21",
        "hi": "https://hi.service-now.com/kb_view.do?sysparm_article=KB0597668",
        "git": "https://gitlab.com/jacebenson/sndocs/tree/master/sources/helsinki/5/scripts/"
      },
      {
        "number": "6",
        "name": "Helsinki Patch 6",
        "url": "https://docs.servicenow.com/bundle/helsinki-release-notes/page/release-notes/r_Helsinki-Patch-6.html",
        "date": "2016-10-20",
        "hi": "https://hi.service-now.com/kb_view.do?sysparm_article=KB0598105"
      },
      {
        "number": "7",
        "name": "Helsinki Patch 7",
        "url": "https://docs.servicenow.com/bundle/helsinki-release-notes/page/release-notes/r_Helsinki-Patch-7.html",
        "date": "2016-11-17",
        "hi": "https://hi.service-now.com/kb_view.do?sysparm_article=KB0596689"
      },
      {
        "number": "8",
        "name": "Helsinki Patch 8",
        "url": "https://docs.servicenow.com/bundle/helsinki-release-notes/page/release-notes/r_Helsinki-Patch-8.html",
        "date": "2016-12-15",
        "hi": "https://hi.service-now.com/kb_view.do?sysparm_article=KB0596689"
      },
      {
        "number": "9",
        "name": "Helsinki Patch 9",
        "url": "https://docs.servicenow.com/bundle/helsinki-release-notes/page/release-notes/r_Helsinki-Patch-9.html",
        "date": "2017-02-14",
        "hi": "https://hi.service-now.com/kb_view.do?sysparm_article=KB0621356",
        "git": "https://gitlab.com/jacebenson/sndocs/tree/master/sources/helsinki/9/scripts/"
      },
      {
        "number": "9a",
        "name": "Helsinki Patch 9a",
        "url": "https://docs.servicenow.com/bundle/helsinki-release-notes/page/release-notes/r_Helsinki-Patch-9a.html",
        "date": "2017-03-22"
      },
      {
        "number": "10",
        "name": "Helsinki Patch 10",
        "url": "https://docs.servicenow.com/bundle/helsinki-release-notes/page/release-notes/r_Helsinki-Patch-10.html",
        "date": "2017-05-04",
        "hi": "https://hi.service-now.com/kb_view.do?sysparm_article=KB0622459"
      },
      {
        "number": "11",
        "name": "Helsinki Patch 11",
        "url": "https://docs.servicenow.com/bundle/helsinki-release-notes/page/release-notes/r_Helsinki-Patch-11.html",
        "date": "2017-06-09",
        "hi": "https://hi.service-now.com/kb_view.do?sysparm_article=KB0623092",
        "git": "https://gitlab.com/jacebenson/sndocs/tree/master/sources/helsinki/11/scripts/"
      },
      {
        "number": "11b",
        "name": "Helsinki Patch 11b",
        "url": "https://docs.servicenow.com/bundle/helsinki-release-notes/page/release-notes/r_Helsinki-Patch-11.html",
        "date": "2017-06-09",
        "hi": "https://hi.service-now.com/kb_view.do?sysparm_article=KB0623092",
        "git": "https://gitlab.com/jacebenson/sndocs/tree/master/sources/helsinki/11b/scripts/"
      },
      {
        "number": "12",
        "name": "Helsinki Patch 12",
        "url": "https://docs.servicenow.com/bundle/helsinki-release-notes/page/release-notes/r_Helsinki-Patch-12.html",
        "date": "2017-08-24",
        "git": "https://gitlab.com/jacebenson/sndocs/tree/master/sources/helsinki/12/scripts/"
      },
      {
        "number": "12a",
        "name": "Helsinki Patch 12a",
        "url": "",
        "date": "2017-08-24",
        "git": "https://gitlab.com/jacebenson/sndocs/tree/master/sources/helsinki/12a/scripts/",
        "hi": "https://hi.service-now.com/kb_view.do?sys_kb_id=60f52e17dbb407800e3dfb651f9619e1"
      }
    ],
    "features": [
      "ServiceMapping",
      "Event Management",
      "UI16",
      "Surveys",
      "Customer Service Management (Scoped)",
      "ECMA5 aka es5",
      "Service Portal"
    ]
  },
  {
    "name": "Istanbul",
    "url": "https://docs.servicenow.com/bundle/istanbul-release-notes/page/release-notes/istanbul-release-notes.html",
    "date": "2016-11-28",
    "patches": [
      {
        "number": "1",
        "name": "Istanbul Patch 1",
        "url": "https://docs.servicenow.com/bundle/istanbul-release-notes/page/release-notes/r_Istanbul-Patch-1.html",
        "date": "2017-01-13",
        "hi": "https://hi.service-now.com/kb_view.do?sysparm_article=KB0598954",
        "git": "https://gitlab.com/jacebenson/sndocs/tree/master/sources/istanbul/1/scripts/"
      },
      {
        "number": "2",
        "name": "Istanbul Patch 2",
        "url": "https://docs.servicenow.com/bundle/istanbul-release-notes/page/release-notes/r_Istanbul-Patch-2.html",
        "date": "2017-02-01",
        "hi": "https://hi.service-now.com/kb_view.do?sysparm_article=KB0610519"
      },
      {
        "number": "3",
        "name": "Istanbul Patch 3",
        "url": "https://docs.servicenow.com/bundle/istanbul-release-notes/page/release-notes/r_Istanbul-Patch-3.html",
        "date": "2017-02-28",
        "hi": "https://hi.service-now.com/kb_view.do?sysparm_article=KB0621511",
        "git": "https://gitlab.com/jacebenson/sndocs/tree/master/sources/istanbul/3/scripts/"
      },
      {
        "number": "3a",
        "name": "Istanbul Patch 3a",
        "url": "https://docs.servicenow.com/bundle/istanbul-release-notes/page/release-notes/r_Istanbul-Patch-3a.html",
        "date": "2017-03-22"
      },
      {
        "number": "4",
        "name": "Istanbul Patch 4",
        "url": "https://docs.servicenow.com/bundle/istanbul-release-notes/page/release-notes/r_Istanbul-Patch-4.html",
        "date": "2017-03-27",
        "git": "https://gitlab.com/jacebenson/sndocs/tree/master/sources/istanbul/4/scripts/",
        "hi": "https://hi.service-now.com/kb_view.do?sysparm_article=KB0621819"
      },
      {
        "number": "5",
        "name": "Istanbul Patch 5",
        "url": "https://docs.servicenow.com/bundle/istanbul-release-notes/page/release-notes/r_Istanbul-Patch-5.html",
        "date": "2017-04-20",
        "git": "https://gitlab.com/jacebenson/sndocs/tree/master/sources/istanbul/5/scripts/",
        "hi": "https://hi.service-now.com/kb_view.do?sysparm_article=KB0622081"
      },
      {
        "number": "6",
        "name": "Istanbul Patch 6",
        "url": "https://docs.servicenow.com/bundle/istanbul-release-notes/page/release-notes/r_Istanbul-Patch-6.html",
        "date": "2017-06-05",
        "git": "https://gitlab.com/jacebenson/sndocs/tree/master/sources/istanbul/6/scripts/",
        "hi": "https://hi.service-now.com/kb_view.do?sysparm_article=KB0622599"
      },
      {
        "number": "6a",
        "name": "Istanbul Patch 6a",
        "url": "",
        "date": "Unknown",
        "hi": "https://hi.service-now.com/kb_view.do?sys_kb_id=fc6b7e6cdb93b6c05a4af85e0f9619a7",
        "git": "https://gitlab.com/jacebenson/sndocs/tree/master/sources/istanbul/6a/scripts/"
      },
      {
        "number": "6b",
        "name": "Istanbul Patch 6b",
        "url": "",
        "date": "Unknown",
        "hi": "https://hi.service-now.com/kb_view.do?sys_kb_id=c0e0d0e5db67b6005a4af85e0f961940"
      },
      {
        "number": "7",
        "name": "Istanbul Patch 7",
        "url": "https://docs.servicenow.com/bundle/istanbul-release-notes/page/release-notes/r_Istanbul-Patch-7.html",
        "date": "2017-07-06",
        "git": "https://gitlab.com/jacebenson/sndocs/tree/master/sources/istanbul/7/scripts/",
        "hi": "https://hi.service-now.com/kb_view.do?sysparm_article=KB0623231"
      },
      {
        "number": "8",
        "name": "Istanbul Patch 8",
        "url": "https://docs.servicenow.com/bundle/istanbul-release-notes/page/release-notes/r_Istanbul-Patch-8.html",
        "date": "2017-07-28",
        "git": "https://gitlab.com/jacebenson/sndocs/tree/master/sources/istanbul/8/scripts/",
        "hi": "https://hi.service-now.com/kb_view.do?sysparm_article=KB0623642"
      },
      {
        "number": "9",
        "name": "Istanbul Patch 9",
        "url": "https://docs.servicenow.com/bundle/istanbul-release-notes/page/release-notes/r_Istanbul-Patch-9.html",
        "date": "2017-08-31",
        "git": "https://gitlab.com/jacebenson/sndocs/tree/master/sources/istanbul/9/scripts/",
        "hi": "https://hi.service-now.com/kb_view.do?sysparm_article=KB0623814"
      },
      {
        "number": "9a",
        "name": "Istanbul Patch 9a",
        "url": "https://docs.servicenow.com/bundle/istanbul-release-notes/page/release-notes/r_Istanbul-Patch-9a-HF-1-PO.html",
        "date": "2017-08-31",
        "git": "https://gitlab.com/jacebenson/sndocs/tree/master/sources/istanbul/9a/scripts/",
        "hi": "https://hi.service-now.com/kb_view.do?sys_kb_id=4756441cdbfd4340bf55f7fcbf961929"
      },
      {
        "number": "10",
        "name": "Istanbul Patch 10",
        "url": "https://docs.servicenow.com/bundle/istanbul-release-notes/page/release-notes/r_Istanbul-Patch-10.html",
        "date": "2017-10-25",
        "git": "https://gitlab.com/jacebenson/sndocs/tree/master/sources/istanbul/10/scripts/",
        "hi": "https://hi.service-now.com/kb_view.do?sysparm_article=KB0635465"
      },
      {
        "number": "10a",
        "name": "Istanbul Patch 10a",
        "url": "",
        "date": "2017-12-12",
        "hi": "https://hi.service-now.com/kb_view.do?sys_kb_id=9e29b0aedbb6c340bd7ef47e0f961981",
        "git": "https://gitlab.com/jacebenson/sndocs/tree/master/sources/istanbul/10a/scripts/"
      },
      {
        "number": "10b",
        "name": "Istanbul Patch 10b",
        "url": "",
        "date": "2018-01-08",
        "hi": "https://hi.service-now.com/kb_view.do?sys_kb_id=bbff91cadbd7c7444837f3231f961930",
        "git": "https://gitlab.com/jacebenson/sndocs/tree/master/sources/istanbul/10b/scripts/"
      },{
        "number": "10c",
        "name": "Istanbul Patch 10c",
        "url": "",
        "date": "2018-02-05",
        "hi": "https://hi.service-now.com/kb_view.do?sysparm_article=KB0662330",
        "git": "https://gitlab.com/jacebenson/sndocs/tree/master/sources/istanbul/10c/scripts/"
      },{
        "number": "11",
        "name": "Istanbul Patch 11",
        "url": "https://docs.servicenow.com/bundle/istanbul-release-notes/page/release-notes/r_Istanbul-Patch-11.html",
        "date": "2018-02-16",
        "hi": "https://hi.service-now.com/kb_view.do?sysparm_article=KB0598935",
        "git": "https://gitlab.com/jacebenson/sndocs/tree/master/sources/istanbul/11/scripts/"
      },{
        "number": "11a",
        "name": "Istanbul Patch 11a",
        "url": "",
        "date": "2018-04-13",
        "hi": "https://hi.service-now.com/kb_view.do?sysparm_article=KB0682452",
        "git": "https://gitlab.com/jacebenson/sndocs/tree/master/sources/istanbul/11a/scripts/"
      },{
        "number": "11b",
        "name": "Istanbul Patch 11b",
        "url": "",
        "date": "2018-04-09",
        "hi": "https://hi.service-now.com/kb_view.do?sysparm_article=KB0684024",
        "git": "https://gitlab.com/jacebenson/sndocs/tree/master/sources/istanbul/11b/scripts/"
      }
    ],
    "features": [
      "Automated Testing Framework",
      "Email API",
      "Script Debugger",
      "Application Portfolio Management",
      "HR Service Management (Scoped)"
    ]
  },
  {
    "name": "Jakarta",
    "url": "https://docs.servicenow.com/bundle/jakarta-release-notes/page/release-notes/jakarta-release-notes.html",
    "date": "2017-06-15",
    "patches": [
      {
        "number": "1",
        "name": "Jakarta Patch 1",
        "url": "https://docs.servicenow.com/bundle/jakarta-release-notes/page/release-notes/quality/jakarta-patch-1.html",
        "hi": "https://hi.service-now.com/kb_view.do?sysparm_article=KB0623601",
        "git": "https://gitlab.com/jacebenson/sndocs/tree/master/sources/jakarta/1/scripts/",
        "date": "2017-07-31"
      },
      {
        "number": "2",
        "name": "Jakarta Patch 2",
        "url": "https://docs.servicenow.com/bundle/jakarta-release-notes/page/release-notes/quality/jakarta-patch-2.html",
        "hi": "https://hi.service-now.com/kb_view.do?sysparm_article=KB0634632",
        "git": "https://gitlab.com/jacebenson/sndocs/tree/master/sources/jakarta/2/scripts/",
        "date": "2017-08-18"
      },
      {
        "number": "3",
        "name": "Jakarta Patch 3",
        "url": "https://docs.servicenow.com/bundle/jakarta-release-notes/page/release-notes/quality/jakarta-patch-3.html",
        "hi": "https://hi.service-now.com/kb_view.do?sysparm_article=KB0623769",
        "git": "https://gitlab.com/jacebenson/sndocs/tree/master/sources/jakarta/3/scripts/",
        "date": "2017-09-13"
      },
      {
        "number": "3a",
        "name": "Jakarta Patch 3a",
        "url": "https://docs.servicenow.com/bundle/jakarta-release-notes/page/release-notes/quality/jakarta-patch-3a-hf-1-PO.html",
        "git": "https://gitlab.com/jacebenson/sndocs/tree/master/sources/jakarta/3a/scripts/",
        "hi":"https://hi.service-now.com/kb_view.do?sysparm_article=KB0623655",
        "date": "2017-11-13"
      },
      {
        "number": "3b",
        "name": "Jakarta Patch 3b",
        "url": "",
        "git": "https://gitlab.com/jacebenson/sndocs/tree/master/sources/jakarta/3b/scripts/",
        "hi": "https://hi.service-now.com/kb_view.do?sys_kb_id=27fa9e45dbb50f80bf55f7fcbf9619a2",
        "date": "2017-12-06"
      },
      {
        "number": "4",
        "name": "Jakarta Patch 4",
        "url": "https://docs.servicenow.com/bundle/jakarta-release-notes/page/release-notes/quality/jakarta-patch-4.html",
        "hi": "https://hi.service-now.com/kb_view.do?sysparm_article=KB0623601",
        "git": "https://gitlab.com/jacebenson/sndocs/tree/master/sources/jakarta/4/scripts/",
        "date": "2017-10-06"
      },
      {
        "number": "5",
        "name": "Jakarta Patch 5",
        "url": "https://docs.servicenow.com/bundle/jakarta-release-notes/page/release-notes/quality/jakarta-patch-5.html",
        "hi": "https://hi.service-now.com/kb_view.do?sysparm_article=KB0623655",
        "git": "https://gitlab.com/jacebenson/sndocs/tree/master/sources/jakarta/5/scripts/",
        "date": "2017-11-02"
      },
      {
        "number": "6",
        "name": "Jakarta Patch 6",
        "url": "https://docs.servicenow.com/bundle/jakarta-release-notes/page/release-notes/quality/jakarta-patch-6.html",
        "hi": "https://hi.service-now.com/kb_view.do?sysparm_article=KB0623655",
        "git": "https://gitlab.com/jacebenson/sndocs/tree/master/sources/jakarta/6/scripts/",
        "date": "2017-11-30"
      },
      {
        "number": "6a",
        "name": "Jakarta Patch 6a",
        "url": "",
        "hi": "https://hi.service-now.com/kb_view.do?sys_kb_id=6e50210edbd7c7444837f3231f96191d",
        "git": "https://gitlab.com/jacebenson/sndocs/tree/master/sources/jakarta/6a/scripts/",
        "date": "2018-01-02"
      },
      {
        "number": "7",
        "name": "Jakarta Patch 7",
        "url": "https://docs.servicenow.com/bundle/jakarta-release-notes/page/release-notes/quality/jakarta-patch-7.html",
        "hi": "https://hi.service-now.com/kb_view.do?sysparm_article=KB0623655",
        "git": "https://gitlab.com/jacebenson/sndocs/tree/master/sources/jakarta/7/scripts/",
        "date": "2018-01-05"
      },
      {
        "number": "8",
        "name": "Jakarta Patch 8",
        "url": "https://docs.servicenow.com/bundle/jakarta-release-notes/page/release-notes/quality/jakarta-patch-8.html",
        "hi": "https://hi.service-now.com/kb_view.do?sysparm_article=KB0623655",
        "git": "https://gitlab.com/jacebenson/sndocs/tree/master/sources/jakarta/8/scripts/",
        "date": "2018-02-26"
      },
      {
        "number": "8a",
        "name": "Jakarta Patch 8a",
        "url": "",
        "hi": "https://hi.service-now.com/kb_view.do?sysparm_article=KB0682388",
        "git": "https://gitlab.com/jacebenson/sndocs/tree/master/sources/jakarta/8a/scripts/",
        "date": "2018-02-26"
      },
      {
        "number": "8b",
        "name": "Jakarta Patch 8b",
        "url": "",
        "hi": "https://hi.service-now.com/kb_view.do?sysparm_article=KB0684026",
        "git": "https://gitlab.com/jacebenson/sndocs/tree/master/sources/jakarta/8b/scripts/",
        "date": "2018-04-05"
      },
      {
        "number": "9",
        "name": "Jakarta Patch 9",
        "url": "https://docs.servicenow.com/bundle/jakarta-release-notes/page/release-notes/quality/jakarta-patch-9.html",
        "hi": "https://hi.service-now.com/kb_view.do?sysparm_article=KB0685869",
        "git": "https://gitlab.com/jacebenson/sndocs/tree/master/sources/jakarta/9/scripts/",
        "date": "2018-05-17"
      }
    ],
    "features": [
      "Embedded Help",
      "MetricBase",
      "Benchmarks",
      "Trusted Security Circles",
      "Communities",
      "Guided Tours",
      "Global Search:Improvements",
      "Convience table.config",
      "UI: Double tap to open context menus on touch devices",
      "UI: UI Action styles",
      "List v3:Perforance Improvements",
      "List v3:Live Lists",
      "Service Portal:User Criteria",
      "Service Portal:Contextual Search Sources",
      "Service Portal:WGAC level AA"
    ]
  },
  {
    "name": "Kingston",
    "url": "https://docs.servicenow.com/bundle/kingston-release-notes/page/release-notes/kingston-release-notes.html",
    "date": "2017-11-16",
    "patches": [
      {
        "number": "0",
        "name": "Kingston Patch 0",
        "url": "https://docs.servicenow.com/bundle/kingston-release-notes/page/release-notes/family-release-notes.html",
        "hi": "https://hi.service-now.com/kb_view.do?sysparm_article=KB0623762",
        "git": "https://gitlab.com/jacebenson/sndocs/tree/master/sources/kingston/0/scripts/",
        "date": "2017-11-16"
      },{
        "number": "1",
        "name": "Kingston Patch 1",
        "url": "https://docs.servicenow.com/bundle/kingston-release-notes/page/release-notes/quality/kingston-patch-1.html",
        "hi": "https://hi.service-now.com/kb_view.do?sysparm_article=KB0662222",
        "git": "https://gitlab.com/jacebenson/sndocs/tree/master/sources/kingston/1/scripts/",
        "date": "2018-01-11"
      },{
        "number": "2",
        "name": "Kingston Patch 2",
        "url": "https://docs.servicenow.com/bundle/kingston-release-notes/page/release-notes/quality/kingston-patch-2.html",
        "hi": "https://hi.service-now.com/kb_view.do?sysparm_article=KB0623762",
        "git": "https://gitlab.com/jacebenson/sndocs/tree/master/sources/kingston/2/scripts/",
        "date": "2018-02-01"
      },{
        "number": "3",
        "name": "Kingston Patch 3",
        "url": "https://docs.servicenow.com/bundle/kingston-release-notes/page/release-notes/quality/kingston-patch-3.html",
        "hi": "https://hi.service-now.com/kb_view.do?sysparm_article=KB0623762",
        "git": "https://gitlab.com/jacebenson/sndocs/tree/master/sources/kingston/3/scripts/",
        "date": "2018-03-08"
      },{
        "number": "3a",
        "name": "Kingston Patch 3a",
        "url": "",
        "hi": "https://hi.service-now.com/kb_view.do?sysparm_article=KB0682450",
        "git": "https://gitlab.com/jacebenson/sndocs/tree/master/sources/kingston/3a/scripts/",
        "date": "2018-03-08"
      },{
        "number": "3b",
        "name": "Kingston Patch 3b",
        "url": "",
        "hi": "https://hi.service-now.com/kb_view.do?sysparm_article=KB0684018",
        "git": "https://gitlab.com/jacebenson/sndocs/tree/master/sources/kingston/3b/scripts/",
        "date": "2018-04-05"
      },{
        "number": "4",
        "name": "Kingston Patch 4",
        "url": "https://docs.servicenow.com/bundle/kingston-release-notes/page/release-notes/quality/kingston-patch-4.html",
        "hi": "https://hi.service-now.com/kb_view.do?sysparm_article=KB0683279",
        "git": "https://gitlab.com/jacebenson/sndocs/tree/master/sources/kingston/4/scripts/",
        "date": "2018-04-13"
      },{
        "number": "5",
        "name": "Kingston Patch 5",
        "url": "https://docs.servicenow.com/bundle/kingston-release-notes/page/release-notes/quality/kingston-patch-5.html",
        "hi": "https://hi.service-now.com/kb_view.do?sysparm_article=KB0685497",
        "git": "https://gitlab.com/jacebenson/sndocs/tree/master/sources/kingston/5/scripts/",
        "date": "2018-05-03"
      }
    ],
    "features": [
      "Agent Intelligence",
      "Flow Designer",
      "Function fields",
      "IntregrationHub",
      "State Management",
      "Enterprise Release Management",
      "Configuration Compliance",
      "Email Digests",
      "Service Portal Announcements",
      "Serivce Portal Catalog Wishlist",
      "Service Portal Catalog Order Guide Widget",
      "Service Portal Catalog Order Status Widget",
      "Service Portal Dynamic Page Titles",
      "Standard Error Codes API",
      "Guided Tours Auto Launch",
      "Guided Tours Domain Seperation"
    ]
  }
]